==17516== Memcheck, a memory error detector
==17516== Copyright (C) 2002-2017, and GNU GPL'd, by Julian Seward et al.
==17516== Using Valgrind-3.13.0 and LibVEX; rerun with -h for copyright info
==17516== Command: ./01_w_Defects 28002
==17516== 
==17516== Warning: set address range perms: large range [0x59e43040, 0x126b0fce8) (undefined)
==17516== Warning: set address range perms: large range [0x59e43028, 0x126b0fd00) (noaccess)
==17516== 
==17516== HEAP SUMMARY:
==17516==     in use at exit: 0 bytes in 0 blocks
==17516==   total heap usage: 2 allocs, 2 frees, 3,435,974,824 bytes allocated
==17516== 
==17516== All heap blocks were freed -- no leaks are possible
==17516== 
==17516== For counts of detected and suppressed errors, rerun with: -v
==17516== ERROR SUMMARY: 0 errors from 0 contexts (suppressed: 0 from 0)
