==32548== Memcheck, a memory error detector
==32548== Copyright (C) 2002-2017, and GNU GPL'd, by Julian Seward et al.
==32548== Using Valgrind-3.13.0 and LibVEX; rerun with -h for copyright info
==32548== Command: ./01_w_Defects 1034
==32548== 
==32548== 
==32548== HEAP SUMMARY:
==32548==     in use at exit: 0 bytes in 0 blocks
==32548==   total heap usage: 1 allocs, 1 frees, 1,024 bytes allocated
==32548== 
==32548== All heap blocks were freed -- no leaks are possible
==32548== 
==32548== For counts of detected and suppressed errors, rerun with: -v
==32548== ERROR SUMMARY: 0 errors from 0 contexts (suppressed: 0 from 0)
