==36704== Memcheck, a memory error detector
==36704== Copyright (C) 2002-2017, and GNU GPL'd, by Julian Seward et al.
==36704== Using Valgrind-3.13.0 and LibVEX; rerun with -h for copyright info
==36704== Command: ./01_w_Defects 22022
==36704== 
==36704== 
==36704== HEAP SUMMARY:
==36704==     in use at exit: 0 bytes in 0 blocks
==36704==   total heap usage: 1 allocs, 1 frees, 1,024 bytes allocated
==36704== 
==36704== All heap blocks were freed -- no leaks are possible
==36704== 
==36704== For counts of detected and suppressed errors, rerun with: -v
==36704== ERROR SUMMARY: 0 errors from 0 contexts (suppressed: 0 from 0)
