==36697== Memcheck, a memory error detector
==36697== Copyright (C) 2002-2017, and GNU GPL'd, by Julian Seward et al.
==36697== Using Valgrind-3.13.0 and LibVEX; rerun with -h for copyright info
==36697== Command: ./01_w_Defects 22021
==36697== 
==36697== 
==36697== HEAP SUMMARY:
==36697==     in use at exit: 0 bytes in 0 blocks
==36697==   total heap usage: 1 allocs, 1 frees, 1,024 bytes allocated
==36697== 
==36697== All heap blocks were freed -- no leaks are possible
==36697== 
==36697== For counts of detected and suppressed errors, rerun with: -v
==36697== ERROR SUMMARY: 0 errors from 0 contexts (suppressed: 0 from 0)
