==37201== Memcheck, a memory error detector
==37201== Copyright (C) 2002-2017, and GNU GPL'd, by Julian Seward et al.
==37201== Using Valgrind-3.13.0 and LibVEX; rerun with -h for copyright info
==37201== Command: ./01_w_Defects 24039
==37201== 
==37201== 
==37201== HEAP SUMMARY:
==37201==     in use at exit: 0 bytes in 0 blocks
==37201==   total heap usage: 1 allocs, 1 frees, 1,024 bytes allocated
==37201== 
==37201== All heap blocks were freed -- no leaks are possible
==37201== 
==37201== For counts of detected and suppressed errors, rerun with: -v
==37201== ERROR SUMMARY: 0 errors from 0 contexts (suppressed: 0 from 0)
