==37402== Memcheck, a memory error detector
==37402== Copyright (C) 2002-2017, and GNU GPL'd, by Julian Seward et al.
==37402== Using Valgrind-3.13.0 and LibVEX; rerun with -h for copyright info
==37402== Command: ./01_w_Defects 25025
==37402== 
==37402== 
==37402== HEAP SUMMARY:
==37402==     in use at exit: 0 bytes in 0 blocks
==37402==   total heap usage: 1 allocs, 1 frees, 1,024 bytes allocated
==37402== 
==37402== All heap blocks were freed -- no leaks are possible
==37402== 
==37402== For counts of detected and suppressed errors, rerun with: -v
==37402== ERROR SUMMARY: 0 errors from 0 contexts (suppressed: 0 from 0)
