==38568== Memcheck, a memory error detector
==38568== Copyright (C) 2002-2017, and GNU GPL'd, by Julian Seward et al.
==38568== Using Valgrind-3.13.0 and LibVEX; rerun with -h for copyright info
==38568== Command: ./01_w_Defects 30005
==38568== 
==38568== 
==38568== HEAP SUMMARY:
==38568==     in use at exit: 0 bytes in 0 blocks
==38568==   total heap usage: 1 allocs, 1 frees, 1,024 bytes allocated
==38568== 
==38568== All heap blocks were freed -- no leaks are possible
==38568== 
==38568== For counts of detected and suppressed errors, rerun with: -v
==38568== ERROR SUMMARY: 0 errors from 0 contexts (suppressed: 0 from 0)
