==65112== Memcheck, a memory error detector
==65112== Copyright (C) 2002-2017, and GNU GPL'd, by Julian Seward et al.
==65112== Using Valgrind-3.13.0 and LibVEX; rerun with -h for copyright info
==65112== Command: ./01_w_Defects 32040
==65112== 
==65112== 
==65112== HEAP SUMMARY:
==65112==     in use at exit: 0 bytes in 0 blocks
==65112==   total heap usage: 1 allocs, 1 frees, 1,024 bytes allocated
==65112== 
==65112== All heap blocks were freed -- no leaks are possible
==65112== 
==65112== For counts of detected and suppressed errors, rerun with: -v
==65112== ERROR SUMMARY: 0 errors from 0 contexts (suppressed: 0 from 0)
