==39541== Memcheck, a memory error detector
==39541== Copyright (C) 2002-2017, and GNU GPL'd, by Julian Seward et al.
==39541== Using Valgrind-3.13.0 and LibVEX; rerun with -h for copyright info
==39541== Command: ./01_w_Defects 34017
==39541== 
==39541== 
==39541== HEAP SUMMARY:
==39541==     in use at exit: 0 bytes in 0 blocks
==39541==   total heap usage: 1 allocs, 1 frees, 1,024 bytes allocated
==39541== 
==39541== All heap blocks were freed -- no leaks are possible
==39541== 
==39541== For counts of detected and suppressed errors, rerun with: -v
==39541== ERROR SUMMARY: 0 errors from 0 contexts (suppressed: 0 from 0)
