==41264== Memcheck, a memory error detector
==41264== Copyright (C) 2002-2017, and GNU GPL'd, by Julian Seward et al.
==41264== Using Valgrind-3.13.0 and LibVEX; rerun with -h for copyright info
==41264== Command: ./01_w_Defects 43042
==41264== 
==41264== 
==41264== HEAP SUMMARY:
==41264==     in use at exit: 0 bytes in 0 blocks
==41264==   total heap usage: 1 allocs, 1 frees, 1,024 bytes allocated
==41264== 
==41264== All heap blocks were freed -- no leaks are possible
==41264== 
==41264== For counts of detected and suppressed errors, rerun with: -v
==41264== ERROR SUMMARY: 0 errors from 0 contexts (suppressed: 0 from 0)
