==41786== Memcheck, a memory error detector
==41786== Copyright (C) 2002-2017, and GNU GPL'd, by Julian Seward et al.
==41786== Using Valgrind-3.13.0 and LibVEX; rerun with -h for copyright info
==41786== Command: ./01_w_Defects 46004
==41786== 
==41786== 
==41786== HEAP SUMMARY:
==41786==     in use at exit: 0 bytes in 0 blocks
==41786==   total heap usage: 1 allocs, 1 frees, 1,024 bytes allocated
==41786== 
==41786== All heap blocks were freed -- no leaks are possible
==41786== 
==41786== For counts of detected and suppressed errors, rerun with: -v
==41786== ERROR SUMMARY: 0 errors from 0 contexts (suppressed: 0 from 0)
