==33604== Memcheck, a memory error detector
==33604== Copyright (C) 2002-2017, and GNU GPL'd, by Julian Seward et al.
==33604== Using Valgrind-3.13.0 and LibVEX; rerun with -h for copyright info
==33604== Command: ./01_w_Defects 6026
==33604== 
==33604== 
==33604== HEAP SUMMARY:
==33604==     in use at exit: 0 bytes in 0 blocks
==33604==   total heap usage: 1 allocs, 1 frees, 1,024 bytes allocated
==33604== 
==33604== All heap blocks were freed -- no leaks are possible
==33604== 
==33604== For counts of detected and suppressed errors, rerun with: -v
==33604== ERROR SUMMARY: 0 errors from 0 contexts (suppressed: 0 from 0)
