==33703== Memcheck, a memory error detector
==33703== Copyright (C) 2002-2017, and GNU GPL'd, by Julian Seward et al.
==33703== Using Valgrind-3.13.0 and LibVEX; rerun with -h for copyright info
==33703== Command: ./01_w_Defects 6048
==33703== 
==33703== 
==33703== HEAP SUMMARY:
==33703==     in use at exit: 0 bytes in 0 blocks
==33703==   total heap usage: 1 allocs, 1 frees, 1,024 bytes allocated
==33703== 
==33703== All heap blocks were freed -- no leaks are possible
==33703== 
==33703== For counts of detected and suppressed errors, rerun with: -v
==33703== ERROR SUMMARY: 0 errors from 0 contexts (suppressed: 0 from 0)
