==71322== Memcheck, a memory error detector
==71322== Copyright (C) 2002-2017, and GNU GPL'd, by Julian Seward et al.
==71322== Using Valgrind-3.13.0 and LibVEX; rerun with -h for copyright info
==71322== Command: ./01_w_Defects 7017
==71322== 
==71322== 
==71322== HEAP SUMMARY:
==71322==     in use at exit: 0 bytes in 0 blocks
==71322==   total heap usage: 1 allocs, 1 frees, 1,024 bytes allocated
==71322== 
==71322== All heap blocks were freed -- no leaks are possible
==71322== 
==71322== For counts of detected and suppressed errors, rerun with: -v
==71322== ERROR SUMMARY: 0 errors from 0 contexts (suppressed: 0 from 0)
