==33979== Memcheck, a memory error detector
==33979== Copyright (C) 2002-2017, and GNU GPL'd, by Julian Seward et al.
==33979== Using Valgrind-3.13.0 and LibVEX; rerun with -h for copyright info
==33979== Command: ./01_w_Defects 8017
==33979== 
==33979== 
==33979== HEAP SUMMARY:
==33979==     in use at exit: 0 bytes in 0 blocks
==33979==   total heap usage: 1 allocs, 1 frees, 1,024 bytes allocated
==33979== 
==33979== All heap blocks were freed -- no leaks are possible
==33979== 
==33979== For counts of detected and suppressed errors, rerun with: -v
==33979== ERROR SUMMARY: 0 errors from 0 contexts (suppressed: 0 from 0)
