AddressSanitizer:DEADLYSIGNAL
=================================================================
==69695==ERROR: AddressSanitizer: stack-overflow on address 0x7ffe9e4f00a0 (pc 0x000000523b86 bp 0x7ffe9edd1590 sp 0x7ffe9e4f00a0 T0)
    #0 0x523b85 in st_overflow_main /home/ynong/Download/Software-Analysis-Benchmark/01.w_Defects/st_overflow.c:247
    #1 0x4f7490 in main /home/ynong/Download/Software-Analysis-Benchmark/01.w_Defects/main.c:272:3
    #2 0x7f63be19fb96 in __libc_start_main (/lib/x86_64-linux-gnu/libc.so.6+0x21b96)
    #3 0x41ac89 in _start (/home/ynong/Download/Software-Analysis-Benchmark/01.w_Defects/01_w_Defects+0x41ac89)

SUMMARY: AddressSanitizer: stack-overflow /home/ynong/Download/Software-Analysis-Benchmark/01.w_Defects/st_overflow.c:247 in st_overflow_main
==69695==ABORTING
