AddressSanitizer:DEADLYSIGNAL
=================================================================
==12960==ERROR: AddressSanitizer: stack-overflow on address 0x7ffc456e59b8 (pc 0x000000534203 bp 0x7ffc45765b50 sp 0x7ffc456e59c0 T0)
    #0 0x534202 in st_overflow_005_func_001 /home/ynong/Download/Software-Analysis-Benchmark/01.w_Defects/st_overflow.c
    #1 0x534477 in st_overflow_005 /home/ynong/Download/Software-Analysis-Benchmark/01.w_Defects/st_overflow.c:155:2
    #2 0x535778 in st_overflow_main /home/ynong/Download/Software-Analysis-Benchmark/01.w_Defects/st_overflow.c:270:3
    #3 0x4f9ba8 in main /home/ynong/Download/Software-Analysis-Benchmark/01.w_Defects/main.c:272:3
    #4 0x7f83252ceb96 in __libc_start_main (/lib/x86_64-linux-gnu/libc.so.6+0x21b96)
    #5 0x41ad39 in _start (/home/ynong/Download/Software-Analysis-Benchmark/01.w_Defects/01_w_Defects+0x41ad39)

SUMMARY: AddressSanitizer: stack-overflow /home/ynong/Download/Software-Analysis-Benchmark/01.w_Defects/st_overflow.c in st_overflow_005_func_001
==12960==ABORTING
