~~Dr.M~~ Dr. Memory version 2.1.0
~~Dr.M~~ 
~~Dr.M~~ Error #1: UNADDRESSABLE ACCESS: writing 1 byte(s)
~~Dr.M~~ # 0 replace_strcpy                       [/drmemory_package/drmemory/replace.c:597]
~~Dr.M~~ # 1 free_null_pointer_006                [free_null_pointer.c:146]
~~Dr.M~~ # 2 free_null_pointer_main               [free_null_pointer.c:597]
~~Dr.M~~ # 3 main                                 [main.c:122]
~~Dr.M~~ 
~~Dr.M~~ ERRORS FOUND:
~~Dr.M~~       1 unique,     1 total unaddressable access(es)
~~Dr.M~~       0 unique,     0 total uninitialized access(es)
~~Dr.M~~       0 unique,     0 total invalid heap argument(s)
~~Dr.M~~       0 unique,     0 total warning(s)
~~Dr.M~~       0 unique,     0 total,      0 byte(s) of leak(s)
~~Dr.M~~       0 unique,     0 total,      0 byte(s) of possible leak(s)
~~Dr.M~~ Details: /home/ynong/Download/DrMemory-Linux-2.1.0-1/drmemory/logs/DrMemory-01_w_Defects.1685.000/results.txt
Segmentation fault (core dumped)
