~~Dr.M~~ Dr. Memory version 2.1.0
~~Dr.M~~ 
~~Dr.M~~ Error #1: UNADDRESSABLE ACCESS: reading 1 byte(s)
~~Dr.M~~ # 0 replace_strlen                          [/drmemory_package/drmemory/replace.c:412]
~~Dr.M~~ # 1 func_pointer_004_func_001               [func_pointer.c:97]
~~Dr.M~~ # 2 func_pointer_main                       [func_pointer.c:375]
~~Dr.M~~ # 3 main                                    [main.c:128]
~~Dr.M~~ 
~~Dr.M~~ ERRORS FOUND:
~~Dr.M~~       1 unique,     1 total unaddressable access(es)
~~Dr.M~~       0 unique,     0 total uninitialized access(es)
~~Dr.M~~       0 unique,     0 total invalid heap argument(s)
~~Dr.M~~       0 unique,     0 total warning(s)
~~Dr.M~~       0 unique,     0 total,      0 byte(s) of leak(s)
~~Dr.M~~       0 unique,     0 total,      0 byte(s) of possible leak(s)
~~Dr.M~~ Details: /home/ynong/Download/DrMemory-Linux-2.1.0-1/drmemory/logs/DrMemory-01_w_Defects.41187.000/results.txt
Segmentation fault (core dumped)
