~~Dr.M~~ Dr. Memory version 2.1.0
~~Dr.M~~ 
~~Dr.M~~ Error #1: UNINITIALIZED READ: reading register rax
~~Dr.M~~ # 0 dynamic_buffer_overrun_018                [buffer_overrun_dynamic.c:333]
~~Dr.M~~ # 1 dynamic_buffer_overrun_main               [buffer_overrun_dynamic.c:706]
~~Dr.M~~ # 2 main                                      [main.c:32]
~~Dr.M~~ 
~~Dr.M~~ Error #2: UNADDRESSABLE ACCESS: writing 4 byte(s)
~~Dr.M~~ # 0 dynamic_buffer_overrun_018                [buffer_overrun_dynamic.c:333]
~~Dr.M~~ # 1 dynamic_buffer_overrun_main               [buffer_overrun_dynamic.c:706]
~~Dr.M~~ # 2 main                                      [main.c:32]
~~Dr.M~~ 
~~Dr.M~~ ERRORS FOUND:
~~Dr.M~~       1 unique,     1 total unaddressable access(es)
~~Dr.M~~       1 unique,     1 total uninitialized access(es)
~~Dr.M~~       0 unique,     0 total invalid heap argument(s)
~~Dr.M~~       0 unique,     0 total warning(s)
~~Dr.M~~       0 unique,     0 total,      0 byte(s) of leak(s)
~~Dr.M~~       0 unique,     0 total,      0 byte(s) of possible leak(s)
~~Dr.M~~ Details: /home/ynong/Download/DrMemory-Linux-2.1.0-1/drmemory/logs/DrMemory-01_w_Defects.2176.000/results.txt
Segmentation fault (core dumped)
