~~Dr.M~~ Dr. Memory version 2.1.0
~~Dr.M~~ 
~~Dr.M~~ Error #1: UNADDRESSABLE ACCESS of freed memory: reading 4 byte(s)
~~Dr.M~~ # 0 invalid_memory_access_006                [invalid_memory_access.c:188]
~~Dr.M~~ # 1 invalid_memory_access_main               [invalid_memory_access.c:690]
~~Dr.M~~ # 2 main                                     [main.c:164]
~~Dr.M~~ Note: refers to memory that was freed here:
~~Dr.M~~ Note: # 0 replace_free                             [/drmemory_package/common/alloc_replace.c:2707]
~~Dr.M~~ Note: # 1 invalid_memory_access_006                [invalid_memory_access.c:184]
~~Dr.M~~ Note: # 2 invalid_memory_access_main               [invalid_memory_access.c:690]
~~Dr.M~~ Note: # 3 main                                     [main.c:164]
~~Dr.M~~ 
~~Dr.M~~ Error #2: UNADDRESSABLE ACCESS of freed memory: writing 4 byte(s)
~~Dr.M~~ # 0 invalid_memory_access_006                [invalid_memory_access.c:188]
~~Dr.M~~ # 1 invalid_memory_access_main               [invalid_memory_access.c:690]
~~Dr.M~~ # 2 main                                     [main.c:164]
~~Dr.M~~ Note: refers to 4 byte(s) into memory that was freed here:
~~Dr.M~~ Note: # 0 replace_free                             [/drmemory_package/common/alloc_replace.c:2707]
~~Dr.M~~ Note: # 1 invalid_memory_access_006                [invalid_memory_access.c:184]
~~Dr.M~~ Note: # 2 invalid_memory_access_main               [invalid_memory_access.c:690]
~~Dr.M~~ Note: # 3 main                                     [main.c:164]
~~Dr.M~~ 
~~Dr.M~~ ERRORS FOUND:
~~Dr.M~~       2 unique,     2 total unaddressable access(es)
~~Dr.M~~       0 unique,     0 total uninitialized access(es)
~~Dr.M~~       0 unique,     0 total invalid heap argument(s)
~~Dr.M~~       0 unique,     0 total warning(s)
~~Dr.M~~       0 unique,     0 total,      0 byte(s) of leak(s)
~~Dr.M~~       0 unique,     0 total,      0 byte(s) of possible leak(s)
~~Dr.M~~ Details: /home/ynong/Download/DrMemory-Linux-2.1.0-1/drmemory/logs/DrMemory-01_w_Defects.1033.000/results.txt
