~~Dr.M~~ Dr. Memory version 2.1.0
~~Dr.M~~ 
~~Dr.M~~ Error #1: UNADDRESSABLE ACCESS beyond heap bounds: writing 4 byte(s)
~~Dr.M~~ # 0 dynamic_buffer_underrun_019                [buffer_underrun_dynamic.c:354]
~~Dr.M~~ # 1 dynamic_buffer_underrun_main               [buffer_underrun_dynamic.c:884]
~~Dr.M~~ # 2 main                                       [main.c:38]
~~Dr.M~~ 
~~Dr.M~~ Error #2: INVALID HEAP ARGUMENT to free
~~Dr.M~~ # 0 replace_free                               [/drmemory_package/common/alloc_replace.c:2707]
~~Dr.M~~ # 1 dynamic_buffer_underrun_019                [buffer_underrun_dynamic.c:355]
~~Dr.M~~ # 2 dynamic_buffer_underrun_main               [buffer_underrun_dynamic.c:884]
~~Dr.M~~ # 3 main                                       [main.c:38]
~~Dr.M~~ 
~~Dr.M~~ ERRORS FOUND:
~~Dr.M~~       1 unique,     1 total unaddressable access(es)
~~Dr.M~~       0 unique,     0 total uninitialized access(es)
~~Dr.M~~       1 unique,     1 total invalid heap argument(s)
~~Dr.M~~       0 unique,     0 total warning(s)
~~Dr.M~~       0 unique,     0 total,      0 byte(s) of leak(s)
~~Dr.M~~       0 unique,     0 total,      0 byte(s) of possible leak(s)
~~Dr.M~~ Details: /home/ynong/Download/DrMemory-Linux-2.1.0-1/drmemory/logs/DrMemory-01_w_Defects.2346.000/results.txt
