~~Dr.M~~ Dr. Memory version 2.1.0
~~Dr.M~~ 
~~Dr.M~~ Error #1: WARNING: writing to readonly memory 0xf357057b-0xf357057f
~~Dr.M~~ # 0 wrong_arguments_func_pointer_012_func_001               [/usr/include/bits/string_fortified.h:71]
~~Dr.M~~ # 1 wrong_arguments_func_pointer_012                        [wrong_arguments_func_pointer.c:353]
~~Dr.M~~ # 2 wrong_arguments_func_pointer_main                       [wrong_arguments_func_pointer.c:666]
~~Dr.M~~ # 3 _start                                                  [/usr/include/bits/stdio2.h:104]
~~Dr.M~~ 
~~Dr.M~~ ERRORS FOUND:
~~Dr.M~~       0 unique,     0 total unaddressable access(es)
~~Dr.M~~       0 unique,     0 total uninitialized access(es)
~~Dr.M~~       0 unique,     0 total invalid heap argument(s)
~~Dr.M~~       1 unique,     1 total warning(s)
~~Dr.M~~       0 unique,     0 total,      0 byte(s) of leak(s)
~~Dr.M~~       0 unique,     0 total,      0 byte(s) of possible leak(s)
~~Dr.M~~ Details: /home/ynong/Download/DrMemory-Linux-2.1.0-1/drmemory/logs/DrMemory-01_w_Defects.53261.000/results.txt
Segmentation fault (core dumped)
