~~Dr.M~~ Dr. Memory version 2.1.0
~~Dr.M~~ 
~~Dr.M~~ Error #1: UNINITIALIZED READ: reading register ecx
~~Dr.M~~ # 0 wrong_arguments_func_pointer_014_func_002               [wrong_arguments_func_pointer.c:406]
~~Dr.M~~ # 1 wrong_arguments_func_pointer_main                       [wrong_arguments_func_pointer.c:422]
~~Dr.M~~ # 2 main                                                    [main.c:320]
~~Dr.M~~ 
~~Dr.M~~ ERRORS FOUND:
~~Dr.M~~       0 unique,     0 total unaddressable access(es)
~~Dr.M~~       1 unique,     1 total uninitialized access(es)
~~Dr.M~~       0 unique,     0 total invalid heap argument(s)
~~Dr.M~~       0 unique,     0 total warning(s)
~~Dr.M~~       0 unique,     0 total,      0 byte(s) of leak(s)
~~Dr.M~~       0 unique,     0 total,      0 byte(s) of possible leak(s)
~~Dr.M~~ Details: /home/ynong/Download/DrMemory-Linux-2.1.0-1/drmemory/logs/DrMemory-01_w_Defects.53272.000/results.txt
