==34265== Memcheck, a memory error detector
==34265== Copyright (C) 2002-2017, and GNU GPL'd, by Julian Seward et al.
==34265== Using Valgrind-3.13.0 and LibVEX; rerun with -h for copyright info
==34265== Command: ./02_wo_Defects 12049
==34265== 
==34265== 
==34265== HEAP SUMMARY:
==34265==     in use at exit: 0 bytes in 0 blocks
==34265==   total heap usage: 1 allocs, 1 frees, 1,024 bytes allocated
==34265== 
==34265== All heap blocks were freed -- no leaks are possible
==34265== 
==34265== For counts of detected and suppressed errors, rerun with: -v
==34265== ERROR SUMMARY: 0 errors from 0 contexts (suppressed: 0 from 0)
