==37897== Memcheck, a memory error detector
==37897== Copyright (C) 2002-2017, and GNU GPL'd, by Julian Seward et al.
==37897== Using Valgrind-3.13.0 and LibVEX; rerun with -h for copyright info
==37897== Command: ./02_wo_Defects 19050
==37897== 
==37897== 
==37897== HEAP SUMMARY:
==37897==     in use at exit: 0 bytes in 0 blocks
==37897==   total heap usage: 1 allocs, 1 frees, 1,024 bytes allocated
==37897== 
==37897== All heap blocks were freed -- no leaks are possible
==37897== 
==37897== For counts of detected and suppressed errors, rerun with: -v
==37897== ERROR SUMMARY: 0 errors from 0 contexts (suppressed: 0 from 0)
