==37975== Memcheck, a memory error detector
==37975== Copyright (C) 2002-2017, and GNU GPL'd, by Julian Seward et al.
==37975== Using Valgrind-3.13.0 and LibVEX; rerun with -h for copyright info
==37975== Command: ./02_wo_Defects 20011
==37975== 
==37975== 
==37975== HEAP SUMMARY:
==37975==     in use at exit: 0 bytes in 0 blocks
==37975==   total heap usage: 1 allocs, 1 frees, 1,024 bytes allocated
==37975== 
==37975== All heap blocks were freed -- no leaks are possible
==37975== 
==37975== For counts of detected and suppressed errors, rerun with: -v
==37975== ERROR SUMMARY: 0 errors from 0 contexts (suppressed: 0 from 0)
