==37956== Memcheck, a memory error detector
==37956== Copyright (C) 2002-2017, and GNU GPL'd, by Julian Seward et al.
==37956== Using Valgrind-3.13.0 and LibVEX; rerun with -h for copyright info
==37956== Command: ./02_wo_Defects 20008
==37956== 
==37956== 
==37956== HEAP SUMMARY:
==37956==     in use at exit: 0 bytes in 0 blocks
==37956==   total heap usage: 1 allocs, 1 frees, 1,024 bytes allocated
==37956== 
==37956== All heap blocks were freed -- no leaks are possible
==37956== 
==37956== For counts of detected and suppressed errors, rerun with: -v
==37956== ERROR SUMMARY: 0 errors from 0 contexts (suppressed: 0 from 0)
