==38940== Memcheck, a memory error detector
==38940== Copyright (C) 2002-2017, and GNU GPL'd, by Julian Seward et al.
==38940== Using Valgrind-3.13.0 and LibVEX; rerun with -h for copyright info
==38940== Command: ./02_wo_Defects 22031
==38940== 
==38940== 
==38940== HEAP SUMMARY:
==38940==     in use at exit: 0 bytes in 0 blocks
==38940==   total heap usage: 1 allocs, 1 frees, 1,024 bytes allocated
==38940== 
==38940== All heap blocks were freed -- no leaks are possible
==38940== 
==38940== For counts of detected and suppressed errors, rerun with: -v
==38940== ERROR SUMMARY: 0 errors from 0 contexts (suppressed: 0 from 0)
