==42812== Memcheck, a memory error detector
==42812== Copyright (C) 2002-2017, and GNU GPL'd, by Julian Seward et al.
==42812== Using Valgrind-3.13.0 and LibVEX; rerun with -h for copyright info
==42812== Command: ./02_wo_Defects 30025
==42812== 
==42812== 
==42812== HEAP SUMMARY:
==42812==     in use at exit: 0 bytes in 0 blocks
==42812==   total heap usage: 1 allocs, 1 frees, 1,024 bytes allocated
==42812== 
==42812== All heap blocks were freed -- no leaks are possible
==42812== 
==42812== For counts of detected and suppressed errors, rerun with: -v
==42812== ERROR SUMMARY: 0 errors from 0 contexts (suppressed: 0 from 0)
