==43042== Memcheck, a memory error detector
==43042== Copyright (C) 2002-2017, and GNU GPL'd, by Julian Seward et al.
==43042== Using Valgrind-3.13.0 and LibVEX; rerun with -h for copyright info
==43042== Command: ./02_wo_Defects 30047
==43042== 
==43042== 
==43042== HEAP SUMMARY:
==43042==     in use at exit: 0 bytes in 0 blocks
==43042==   total heap usage: 1 allocs, 1 frees, 1,024 bytes allocated
==43042== 
==43042== All heap blocks were freed -- no leaks are possible
==43042== 
==43042== For counts of detected and suppressed errors, rerun with: -v
==43042== ERROR SUMMARY: 0 errors from 0 contexts (suppressed: 0 from 0)
