==44336== Memcheck, a memory error detector
==44336== Copyright (C) 2002-2017, and GNU GPL'd, by Julian Seward et al.
==44336== Using Valgrind-3.13.0 and LibVEX; rerun with -h for copyright info
==44336== Command: ./02_wo_Defects 33045
==44336== 
==44336== 
==44336== HEAP SUMMARY:
==44336==     in use at exit: 0 bytes in 0 blocks
==44336==   total heap usage: 1 allocs, 1 frees, 1,024 bytes allocated
==44336== 
==44336== All heap blocks were freed -- no leaks are possible
==44336== 
==44336== For counts of detected and suppressed errors, rerun with: -v
==44336== ERROR SUMMARY: 0 errors from 0 contexts (suppressed: 0 from 0)
