==45078== Memcheck, a memory error detector
==45078== Copyright (C) 2002-2017, and GNU GPL'd, by Julian Seward et al.
==45078== Using Valgrind-3.13.0 and LibVEX; rerun with -h for copyright info
==45078== Command: ./02_wo_Defects 35041
==45078== 
==45078== 
==45078== HEAP SUMMARY:
==45078==     in use at exit: 0 bytes in 0 blocks
==45078==   total heap usage: 1 allocs, 1 frees, 1,024 bytes allocated
==45078== 
==45078== All heap blocks were freed -- no leaks are possible
==45078== 
==45078== For counts of detected and suppressed errors, rerun with: -v
==45078== ERROR SUMMARY: 0 errors from 0 contexts (suppressed: 0 from 0)
