==45735== Memcheck, a memory error detector
==45735== Copyright (C) 2002-2017, and GNU GPL'd, by Julian Seward et al.
==45735== Using Valgrind-3.13.0 and LibVEX; rerun with -h for copyright info
==45735== Command: ./02_wo_Defects 36037
==45735== 
==45735== 
==45735== HEAP SUMMARY:
==45735==     in use at exit: 0 bytes in 0 blocks
==45735==   total heap usage: 1 allocs, 1 frees, 1,024 bytes allocated
==45735== 
==45735== All heap blocks were freed -- no leaks are possible
==45735== 
==45735== For counts of detected and suppressed errors, rerun with: -v
==45735== ERROR SUMMARY: 0 errors from 0 contexts (suppressed: 0 from 0)
