==46483== Memcheck, a memory error detector
==46483== Copyright (C) 2002-2017, and GNU GPL'd, by Julian Seward et al.
==46483== Using Valgrind-3.13.0 and LibVEX; rerun with -h for copyright info
==46483== Command: ./02_wo_Defects 38028
==46483== 
==46483== 
==46483== HEAP SUMMARY:
==46483==     in use at exit: 0 bytes in 0 blocks
==46483==   total heap usage: 1 allocs, 1 frees, 1,024 bytes allocated
==46483== 
==46483== All heap blocks were freed -- no leaks are possible
==46483== 
==46483== For counts of detected and suppressed errors, rerun with: -v
==46483== ERROR SUMMARY: 0 errors from 0 contexts (suppressed: 0 from 0)
