==46747== Memcheck, a memory error detector
==46747== Copyright (C) 2002-2017, and GNU GPL'd, by Julian Seward et al.
==46747== Using Valgrind-3.13.0 and LibVEX; rerun with -h for copyright info
==46747== Command: ./02_wo_Defects 39014
==46747== 
==46747== 
==46747== HEAP SUMMARY:
==46747==     in use at exit: 0 bytes in 0 blocks
==46747==   total heap usage: 1 allocs, 1 frees, 1,024 bytes allocated
==46747== 
==46747== All heap blocks were freed -- no leaks are possible
==46747== 
==46747== For counts of detected and suppressed errors, rerun with: -v
==46747== ERROR SUMMARY: 0 errors from 0 contexts (suppressed: 0 from 0)
