==31330== Memcheck, a memory error detector
==31330== Copyright (C) 2002-2017, and GNU GPL'd, by Julian Seward et al.
==31330== Using Valgrind-3.13.0 and LibVEX; rerun with -h for copyright info
==31330== Command: ./02_wo_Defects 4017
==31330== 
==31330== 
==31330== HEAP SUMMARY:
==31330==     in use at exit: 0 bytes in 0 blocks
==31330==   total heap usage: 1 allocs, 1 frees, 1,024 bytes allocated
==31330== 
==31330== All heap blocks were freed -- no leaks are possible
==31330== 
==31330== For counts of detected and suppressed errors, rerun with: -v
==31330== ERROR SUMMARY: 0 errors from 0 contexts (suppressed: 0 from 0)
