==49916== Memcheck, a memory error detector
==49916== Copyright (C) 2002-2017, and GNU GPL'd, by Julian Seward et al.
==49916== Using Valgrind-3.13.0 and LibVEX; rerun with -h for copyright info
==49916== Command: ./02_wo_Defects 45024
==49916== 
==49916== 
==49916== HEAP SUMMARY:
==49916==     in use at exit: 0 bytes in 0 blocks
==49916==   total heap usage: 1 allocs, 1 frees, 1,024 bytes allocated
==49916== 
==49916== All heap blocks were freed -- no leaks are possible
==49916== 
==49916== For counts of detected and suppressed errors, rerun with: -v
==49916== ERROR SUMMARY: 0 errors from 0 contexts (suppressed: 0 from 0)
