==50035== Memcheck, a memory error detector
==50035== Copyright (C) 2002-2017, and GNU GPL'd, by Julian Seward et al.
==50035== Using Valgrind-3.13.0 and LibVEX; rerun with -h for copyright info
==50035== Command: ./02_wo_Defects 45035
==50035== 
==50035== 
==50035== HEAP SUMMARY:
==50035==     in use at exit: 0 bytes in 0 blocks
==50035==   total heap usage: 1 allocs, 1 frees, 1,024 bytes allocated
==50035== 
==50035== All heap blocks were freed -- no leaks are possible
==50035== 
==50035== For counts of detected and suppressed errors, rerun with: -v
==50035== ERROR SUMMARY: 0 errors from 0 contexts (suppressed: 0 from 0)
