==50122== Memcheck, a memory error detector
==50122== Copyright (C) 2002-2017, and GNU GPL'd, by Julian Seward et al.
==50122== Using Valgrind-3.13.0 and LibVEX; rerun with -h for copyright info
==50122== Command: ./02_wo_Defects 45044
==50122== 
==50122== 
==50122== HEAP SUMMARY:
==50122==     in use at exit: 0 bytes in 0 blocks
==50122==   total heap usage: 1 allocs, 1 frees, 1,024 bytes allocated
==50122== 
==50122== All heap blocks were freed -- no leaks are possible
==50122== 
==50122== For counts of detected and suppressed errors, rerun with: -v
==50122== ERROR SUMMARY: 0 errors from 0 contexts (suppressed: 0 from 0)
