SAFECode: Fault!
SAFECode:Violation Type 0x6 when accessing  0x8 at IP=0x41a64d

=======+++++++    SAFECODE RUNTIME ALERT +++++++=======
= Error type                            :	Load/Store Error
= CWE ID                                :	120
= Faulting pointer                      :	0x8
= Program counter                       :	0x41a64d
= Fault PC Source                       :	UNKNOWN:0
SAFECode: Fault!
SAFECode:Violation Type 0x6 when accessing  0x8 at IP=0x41a64d

=======+++++++    SAFECODE RUNTIME ALERT +++++++=======
= Error type                            :	Load/Store Error
= CWE ID                                :	120
= Faulting pointer                      :	0x8
= Program counter                       :	0x41a64d
= Fault PC Source                       :	UNKNOWN:0
SAFECode: Fault!
SAFECode:Violation Type 0x6 when accessing  0x8 at IP=0x41a64d

=======+++++++    SAFECODE RUNTIME ALERT +++++++=======
= Error type                            :	Load/Store Error
= CWE ID                                :	120
= Faulting pointer                      :	0x8
= Program counter                       :	0x41a64d
= Fault PC Source                       :	UNKNOWN:0
SAFECode: Fault!
SAFECode:Violation Type 0x6 when accessing  0x8 at IP=0x41a64d

=======+++++++    SAFECODE RUNTIME ALERT +++++++=======
= Error type                            :	Load/Store Error
= CWE ID                                :	120
= Faulting pointer                      :	0x8
= Program counter                       :	0x41a64d
= Fault PC Source                       :	UNKNOWN:0
SAFECode: Fault!
SAFECode:Violation Type 0x6 when accessing  0x8 at IP=0x41a64d

=======+++++++    SAFECODE RUNTIME ALERT +++++++=======
= Error type                            :	Load/Store Error
= CWE ID                                :	120
= Faulting pointer                      :	0x8
= Program counter                       :	0x41a64d
= Fault PC Source                       :	UNKNOWN:0
SAFECode: Fault!
SAFECode:Violation Type 0x6 when accessing  0x8 at IP=0x41a64d

=======+++++++    SAFECODE RUNTIME ALERT +++++++=======
= Error type                            :	Load/Store Error
= CWE ID                                :	120
= Faulting pointer                      :	0x8
= Program counter                       :	0x41a64d
= Fault PC Source                       :	UNKNOWN:0
SAFECode: Fault!
SAFECode:Violation Type 0x6 when accessing  0x8 at IP=0x41a64d

=======+++++++    SAFECODE RUNTIME ALERT +++++++=======
= Error type                            :	Load/Store Error
= CWE ID                                :	120
= Faulting pointer                      :	0x8
= Program counter                       :	0x41a64d
= Fault PC Source                       :	UNKNOWN:0
SAFECode: Fault!
SAFECode:Violation Type 0x6 when accessing  0x8 at IP=0x41a64d

=======+++++++    SAFECODE RUNTIME ALERT +++++++=======
= Error type                            :	Load/Store Error
= CWE ID                                :	120
= Faulting pointer                      :	0x8
= Program counter                       :	0x41a64d
= Fault PC Source                       :	UNKNOWN:0
SAFECode: Fault!
SAFECode:Violation Type 0x6 when accessing  0x8 at IP=0x41a64d

=======+++++++    SAFECODE RUNTIME ALERT +++++++=======
= Error type                            :	Load/Store Error
= CWE ID                                :	120
= Faulting pointer                      :	0x8
= Program counter                       :	0x41a64d
= Fault PC Source                       :	UNKNOWN:0
SAFECode: Fault!
SAFECode:Violation Type 0x6 when accessing  0x8 at IP=0x41a64d

=======+++++++    SAFECODE RUNTIME ALERT +++++++=======
= Error type                            :	Load/Store Error
= CWE ID                                :	120
= Faulting pointer                      :	0x8
= Program counter                       :	0x41a64d
= Fault PC Source                       :	UNKNOWN:0
SAFECode: Fault!
SAFECode:Violation Type 0x6 when accessing  0x8 at IP=0x41a64d

=======+++++++    SAFECODE RUNTIME ALERT +++++++=======
= Error type                            :	Load/Store Error
= CWE ID                                :	120
= Faulting pointer                      :	0x8
= Program counter                       :	0x41a64d
= Fault PC Source                       :	UNKNOWN:0
SAFECode: Fault!
SAFECode:Violation Type 0x6 when accessing  0x8 at IP=0x41a64d

=======+++++++    SAFECODE RUNTIME ALERT +++++++=======
= Error type                            :	Load/Store Error
= CWE ID                                :	120
= Faulting pointer                      :	0x8
= Program counter                       :	0x41a64d
= Fault PC Source                       :	UNKNOWN:0
SAFECode: Fault!
SAFECode:Violation Type 0x6 when accessing  0x8 at IP=0x41a64d

=======+++++++    SAFECODE RUNTIME ALERT +++++++=======
= Error type                            :	Load/Store Error
= CWE ID                                :	120
= Faulting pointer                      :	0x8
= Program counter                       :	0x41a64d
= Fault PC Source                       :	UNKNOWN:0
SAFECode: Fault!
SAFECode:Violation Type 0x6 when accessing  0x8 at IP=0x41a64d

=======+++++++    SAFECODE RUNTIME ALERT +++++++=======
= Error type                            :	Load/Store Error
= CWE ID                                :	120
= Faulting pointer                      :	0x8
= Program counter                       :	0x41a64d
= Fault PC Source                       :	UNKNOWN:0
SAFECode: Fault!
SAFECode:Violation Type 0x6 when accessing  0x8 at IP=0x41a64d

=======+++++++    SAFECODE RUNTIME ALERT +++++++=======
= Error type                            :	Load/Store Error
= CWE ID                                :	120
= Faulting pointer                      :	0x8
= Program counter                       :	0x41a64d
= Fault PC Source                       :	UNKNOWN:0
SAFECode: Fault!
SAFECode:Violation Type 0x6 when accessing  0x8 at IP=0x41a64d

=======+++++++    SAFECODE RUNTIME ALERT +++++++=======
= Error type                            :	Load/Store Error
= CWE ID                                :	120
= Faulting pointer                      :	0x8
= Program counter                       :	0x41a64d
= Fault PC Source                       :	UNKNOWN:0
SAFECode: Fault!
SAFECode:Violation Type 0x6 when accessing  0x8 at IP=0x41a64d

=======+++++++    SAFECODE RUNTIME ALERT +++++++=======
= Error type                            :	Load/Store Error
= CWE ID                                :	120
= Faulting pointer                      :	0x8
= Program counter                       :	0x41a64d
= Fault PC Source                       :	UNKNOWN:0
SAFECode: Fault!
SAFECode:Violation Type 0x6 when accessing  0x8 at IP=0x41a64d

=======+++++++    SAFECODE RUNTIME ALERT +++++++=======
= Error type                            :	Load/Store Error
= CWE ID                                :	120
= Faulting pointer                      :	0x8
= Program counter                       :	0x41a64d
= Fault PC Source                       :	UNKNOWN:0
SAFECode: Fault!
SAFECode:Violation Type 0x6 when accessing  0x8 at IP=0x41a64d

=======+++++++    SAFECODE RUNTIME ALERT +++++++=======
= Error type                            :	Load/Store Error
= CWE ID                                :	120
= Faulting pointer                      :	0x8
= Program counter                       :	0x41a64d
= Fault PC Source                       :	UNKNOWN:0
SAFECode: Fault!
SAFECode:Violation Type 0x6 when accessing  0x8 at IP=0x41a64d

=======+++++++    SAFECODE RUNTIME ALERT +++++++=======
= Error type                            :	Load/Store Error
= CWE ID                                :	120
= Faulting pointer                      :	0x8
= Program counter                       :	0x41a64d
= Fault PC Source                       :	UNKNOWN:0
Aborted (core dumped)
