SAFECode: Fault!
SAFECode:Violation Type 0x6 when accessing  0xc at IP=0x40b241

=======+++++++    SAFECODE RUNTIME ALERT +++++++=======
= Error type                            :	Load/Store Error
= CWE ID                                :	120
= Faulting pointer                      :	0xc
= Program counter                       :	0x40b241
= Fault PC Source                       :	UNKNOWN:0
SAFECode: Fault!
SAFECode:Violation Type 0x6 when accessing  0xc at IP=0x40b241

=======+++++++    SAFECODE RUNTIME ALERT +++++++=======
= Error type                            :	Load/Store Error
= CWE ID                                :	120
= Faulting pointer                      :	0xc
= Program counter                       :	0x40b241
= Fault PC Source                       :	UNKNOWN:0
SAFECode: Fault!
SAFECode:Violation Type 0x6 when accessing  0xc at IP=0x40b241

=======+++++++    SAFECODE RUNTIME ALERT +++++++=======
= Error type                            :	Load/Store Error
= CWE ID                                :	120
= Faulting pointer                      :	0xc
= Program counter                       :	0x40b241
= Fault PC Source                       :	UNKNOWN:0
SAFECode: Fault!
SAFECode:Violation Type 0x6 when accessing  0xc at IP=0x40b241

=======+++++++    SAFECODE RUNTIME ALERT +++++++=======
= Error type                            :	Load/Store Error
= CWE ID                                :	120
= Faulting pointer                      :	0xc
= Program counter                       :	0x40b241
= Fault PC Source                       :	UNKNOWN:0
SAFECode: Fault!
SAFECode:Violation Type 0x6 when accessing  0xc at IP=0x40b241

=======+++++++    SAFECODE RUNTIME ALERT +++++++=======
= Error type                            :	Load/Store Error
= CWE ID                                :	120
= Faulting pointer                      :	0xc
= Program counter                       :	0x40b241
= Fault PC Source                       :	UNKNOWN:0
SAFECode: Fault!
SAFECode:Violation Type 0x6 when accessing  0xc at IP=0x40b241

=======+++++++    SAFECODE RUNTIME ALERT +++++++=======
= Error type                            :	Load/Store Error
= CWE ID                                :	120
= Faulting pointer                      :	0xc
= Program counter                       :	0x40b241
= Fault PC Source                       :	UNKNOWN:0
SAFECode: Fault!
SAFECode:Violation Type 0x6 when accessing  0xc at IP=0x40b241

=======+++++++    SAFECODE RUNTIME ALERT +++++++=======
= Error type                            :	Load/Store Error
= CWE ID                                :	120
= Faulting pointer                      :	0xc
= Program counter                       :	0x40b241
= Fault PC Source                       :	UNKNOWN:0
SAFECode: Fault!
SAFECode:Violation Type 0x6 when accessing  0xc at IP=0x40b241

=======+++++++    SAFECODE RUNTIME ALERT +++++++=======
= Error type                            :	Load/Store Error
= CWE ID                                :	120
= Faulting pointer                      :	0xc
= Program counter                       :	0x40b241
= Fault PC Source                       :	UNKNOWN:0
SAFECode: Fault!
SAFECode:Violation Type 0x6 when accessing  0xc at IP=0x40b241

=======+++++++    SAFECODE RUNTIME ALERT +++++++=======
= Error type                            :	Load/Store Error
= CWE ID                                :	120
= Faulting pointer                      :	0xc
= Program counter                       :	0x40b241
= Fault PC Source                       :	UNKNOWN:0
SAFECode: Fault!
SAFECode:Violation Type 0x6 when accessing  0xc at IP=0x40b241

=======+++++++    SAFECODE RUNTIME ALERT +++++++=======
= Error type                            :	Load/Store Error
= CWE ID                                :	120
= Faulting pointer                      :	0xc
= Program counter                       :	0x40b241
= Fault PC Source                       :	UNKNOWN:0
SAFECode: Fault!
SAFECode:Violation Type 0x6 when accessing  0xc at IP=0x40b241

=======+++++++    SAFECODE RUNTIME ALERT +++++++=======
= Error type                            :	Load/Store Error
= CWE ID                                :	120
= Faulting pointer                      :	0xc
= Program counter                       :	0x40b241
= Fault PC Source                       :	UNKNOWN:0
SAFECode: Fault!
SAFECode:Violation Type 0x6 when accessing  0xc at IP=0x40b241

=======+++++++    SAFECODE RUNTIME ALERT +++++++=======
= Error type                            :	Load/Store Error
= CWE ID                                :	120
= Faulting pointer                      :	0xc
= Program counter                       :	0x40b241
= Fault PC Source                       :	UNKNOWN:0
SAFECode: Fault!
SAFECode:Violation Type 0x6 when accessing  0xc at IP=0x40b241

=======+++++++    SAFECODE RUNTIME ALERT +++++++=======
= Error type                            :	Load/Store Error
= CWE ID                                :	120
= Faulting pointer                      :	0xc
= Program counter                       :	0x40b241
= Fault PC Source                       :	UNKNOWN:0
SAFECode: Fault!
SAFECode:Violation Type 0x6 when accessing  0xc at IP=0x40b241

=======+++++++    SAFECODE RUNTIME ALERT +++++++=======
= Error type                            :	Load/Store Error
= CWE ID                                :	120
= Faulting pointer                      :	0xc
= Program counter                       :	0x40b241
= Fault PC Source                       :	UNKNOWN:0
SAFECode: Fault!
SAFECode:Violation Type 0x6 when accessing  0xc at IP=0x40b241

=======+++++++    SAFECODE RUNTIME ALERT +++++++=======
= Error type                            :	Load/Store Error
= CWE ID                                :	120
= Faulting pointer                      :	0xc
= Program counter                       :	0x40b241
= Fault PC Source                       :	UNKNOWN:0
SAFECode: Fault!
SAFECode:Violation Type 0x6 when accessing  0xc at IP=0x40b241

=======+++++++    SAFECODE RUNTIME ALERT +++++++=======
= Error type                            :	Load/Store Error
= CWE ID                                :	120
= Faulting pointer                      :	0xc
= Program counter                       :	0x40b241
= Fault PC Source                       :	UNKNOWN:0
SAFECode: Fault!
SAFECode:Violation Type 0x6 when accessing  0xc at IP=0x40b241

=======+++++++    SAFECODE RUNTIME ALERT +++++++=======
= Error type                            :	Load/Store Error
= CWE ID                                :	120
= Faulting pointer                      :	0xc
= Program counter                       :	0x40b241
= Fault PC Source                       :	UNKNOWN:0
SAFECode: Fault!
SAFECode:Violation Type 0x6 when accessing  0xc at IP=0x40b241

=======+++++++    SAFECODE RUNTIME ALERT +++++++=======
= Error type                            :	Load/Store Error
= CWE ID                                :	120
= Faulting pointer                      :	0xc
= Program counter                       :	0x40b241
= Fault PC Source                       :	UNKNOWN:0
SAFECode: Fault!
SAFECode:Violation Type 0x6 when accessing  0xc at IP=0x40b241

=======+++++++    SAFECODE RUNTIME ALERT +++++++=======
= Error type                            :	Load/Store Error
= CWE ID                                :	120
= Faulting pointer                      :	0xc
= Program counter                       :	0x40b241
= Fault PC Source                       :	UNKNOWN:0
SAFECode: Fault!
SAFECode:Violation Type 0x6 when accessing  0xc at IP=0x40b241

=======+++++++    SAFECODE RUNTIME ALERT +++++++=======
= Error type                            :	Load/Store Error
= CWE ID                                :	120
= Faulting pointer                      :	0xc
= Program counter                       :	0x40b241
= Fault PC Source                       :	UNKNOWN:0
Aborted (core dumped)
