SAFECode: Fault!
SAFECode:Violation Type 0x6 when accessing  0x7ffed67a17dc at IP=0x40d399

=======+++++++    SAFECODE RUNTIME ALERT +++++++=======
= Error type                            :	Load/Store Error
= CWE ID                                :	120
= Faulting pointer                      :	0x7ffed67a17dc
= Program counter                       :	0x40d399
= Fault PC Source                       :	UNKNOWN:0
SAFECode: Fault!
SAFECode:Violation Type 0x6 when accessing  0x7ffed67a17dc at IP=0x40d399

=======+++++++    SAFECODE RUNTIME ALERT +++++++=======
= Error type                            :	Load/Store Error
= CWE ID                                :	120
= Faulting pointer                      :	0x7ffed67a17dc
= Program counter                       :	0x40d399
= Fault PC Source                       :	UNKNOWN:0
SAFECode: Fault!
SAFECode:Violation Type 0x6 when accessing  0x7ffed67a17dc at IP=0x40d399

=======+++++++    SAFECODE RUNTIME ALERT +++++++=======
= Error type                            :	Load/Store Error
= CWE ID                                :	120
= Faulting pointer                      :	0x7ffed67a17dc
= Program counter                       :	0x40d399
= Fault PC Source                       :	UNKNOWN:0
SAFECode: Fault!
SAFECode:Violation Type 0x6 when accessing  0x7ffed67a17dc at IP=0x40d399

=======+++++++    SAFECODE RUNTIME ALERT +++++++=======
= Error type                            :	Load/Store Error
= CWE ID                                :	120
= Faulting pointer                      :	0x7ffed67a17dc
= Program counter                       :	0x40d399
= Fault PC Source                       :	UNKNOWN:0
SAFECode: Fault!
SAFECode:Violation Type 0x6 when accessing  0x7ffed67a17dc at IP=0x40d399

=======+++++++    SAFECODE RUNTIME ALERT +++++++=======
= Error type                            :	Load/Store Error
= CWE ID                                :	120
= Faulting pointer                      :	0x7ffed67a17dc
= Program counter                       :	0x40d399
= Fault PC Source                       :	UNKNOWN:0
SAFECode: Fault!
SAFECode:Violation Type 0x6 when accessing  0x7ffed67a17dc at IP=0x40d399

=======+++++++    SAFECODE RUNTIME ALERT +++++++=======
= Error type                            :	Load/Store Error
= CWE ID                                :	120
= Faulting pointer                      :	0x7ffed67a17dc
= Program counter                       :	0x40d399
= Fault PC Source                       :	UNKNOWN:0
SAFECode: Fault!
SAFECode:Violation Type 0x6 when accessing  0x7ffed67a17dc at IP=0x40d399

=======+++++++    SAFECODE RUNTIME ALERT +++++++=======
= Error type                            :	Load/Store Error
= CWE ID                                :	120
= Faulting pointer                      :	0x7ffed67a17dc
= Program counter                       :	0x40d399
= Fault PC Source                       :	UNKNOWN:0
SAFECode: Fault!
SAFECode:Violation Type 0x6 when accessing  0x7ffed67a17dc at IP=0x40d399

=======+++++++    SAFECODE RUNTIME ALERT +++++++=======
= Error type                            :	Load/Store Error
= CWE ID                                :	120
= Faulting pointer                      :	0x7ffed67a17dc
= Program counter                       :	0x40d399
= Fault PC Source                       :	UNKNOWN:0
SAFECode: Fault!
SAFECode:Violation Type 0x6 when accessing  0x7ffed67a17dc at IP=0x40d399

=======+++++++    SAFECODE RUNTIME ALERT +++++++=======
= Error type                            :	Load/Store Error
= CWE ID                                :	120
= Faulting pointer                      :	0x7ffed67a17dc
= Program counter                       :	0x40d399
= Fault PC Source                       :	UNKNOWN:0
SAFECode: Fault!
SAFECode:Violation Type 0x6 when accessing  0x7ffed67a17dc at IP=0x40d399

=======+++++++    SAFECODE RUNTIME ALERT +++++++=======
= Error type                            :	Load/Store Error
= CWE ID                                :	120
= Faulting pointer                      :	0x7ffed67a17dc
= Program counter                       :	0x40d399
= Fault PC Source                       :	UNKNOWN:0
SAFECode: Fault!
SAFECode:Violation Type 0x6 when accessing  0x7ffed67a17dc at IP=0x40d399

=======+++++++    SAFECODE RUNTIME ALERT +++++++=======
= Error type                            :	Load/Store Error
= CWE ID                                :	120
= Faulting pointer                      :	0x7ffed67a17dc
= Program counter                       :	0x40d399
= Fault PC Source                       :	UNKNOWN:0
SAFECode: Fault!
SAFECode:Violation Type 0x6 when accessing  0x7ffed67a17dc at IP=0x40d399

=======+++++++    SAFECODE RUNTIME ALERT +++++++=======
= Error type                            :	Load/Store Error
= CWE ID                                :	120
= Faulting pointer                      :	0x7ffed67a17dc
= Program counter                       :	0x40d399
= Fault PC Source                       :	UNKNOWN:0
SAFECode: Fault!
SAFECode:Violation Type 0x6 when accessing  0x7ffed67a17dc at IP=0x40d399

=======+++++++    SAFECODE RUNTIME ALERT +++++++=======
= Error type                            :	Load/Store Error
= CWE ID                                :	120
= Faulting pointer                      :	0x7ffed67a17dc
= Program counter                       :	0x40d399
= Fault PC Source                       :	UNKNOWN:0
SAFECode: Fault!
SAFECode:Violation Type 0x6 when accessing  0x7ffed67a17dc at IP=0x40d399

=======+++++++    SAFECODE RUNTIME ALERT +++++++=======
= Error type                            :	Load/Store Error
= CWE ID                                :	120
= Faulting pointer                      :	0x7ffed67a17dc
= Program counter                       :	0x40d399
= Fault PC Source                       :	UNKNOWN:0
SAFECode: Fault!
SAFECode:Violation Type 0x6 when accessing  0x7ffed67a17dc at IP=0x40d399

=======+++++++    SAFECODE RUNTIME ALERT +++++++=======
= Error type                            :	Load/Store Error
= CWE ID                                :	120
= Faulting pointer                      :	0x7ffed67a17dc
= Program counter                       :	0x40d399
= Fault PC Source                       :	UNKNOWN:0
SAFECode: Fault!
SAFECode:Violation Type 0x6 when accessing  0x7ffed67a17dc at IP=0x40d399

=======+++++++    SAFECODE RUNTIME ALERT +++++++=======
= Error type                            :	Load/Store Error
= CWE ID                                :	120
= Faulting pointer                      :	0x7ffed67a17dc
= Program counter                       :	0x40d399
= Fault PC Source                       :	UNKNOWN:0
SAFECode: Fault!
SAFECode:Violation Type 0x6 when accessing  0x7ffed67a17dc at IP=0x40d399

=======+++++++    SAFECODE RUNTIME ALERT +++++++=======
= Error type                            :	Load/Store Error
= CWE ID                                :	120
= Faulting pointer                      :	0x7ffed67a17dc
= Program counter                       :	0x40d399
= Fault PC Source                       :	UNKNOWN:0
SAFECode: Fault!
SAFECode:Violation Type 0x6 when accessing  0x7ffed67a17dc at IP=0x40d399

=======+++++++    SAFECODE RUNTIME ALERT +++++++=======
= Error type                            :	Load/Store Error
= CWE ID                                :	120
= Faulting pointer                      :	0x7ffed67a17dc
= Program counter                       :	0x40d399
= Fault PC Source                       :	UNKNOWN:0
SAFECode: Fault!
SAFECode:Violation Type 0x6 when accessing  0x7ffed67a17dc at IP=0x40d399

=======+++++++    SAFECODE RUNTIME ALERT +++++++=======
= Error type                            :	Load/Store Error
= CWE ID                                :	120
= Faulting pointer                      :	0x7ffed67a17dc
= Program counter                       :	0x40d399
= Fault PC Source                       :	UNKNOWN:0
SAFECode: Fault!
SAFECode:Violation Type 0x6 when accessing  0x7ffed67a17dc at IP=0x40d399

=======+++++++    SAFECODE RUNTIME ALERT +++++++=======
= Error type                            :	Load/Store Error
= CWE ID                                :	120
= Faulting pointer                      :	0x7ffed67a17dc
= Program counter                       :	0x40d399
= Fault PC Source                       :	UNKNOWN:0
Aborted (core dumped)
