SAFECode: Fault!
SAFECode:Violation Type 0x6 when accessing  0 at IP=0x7f9c0d83f646

=======+++++++    SAFECODE RUNTIME ALERT +++++++=======
= Error type                            :	Load/Store Error
= CWE ID                                :	120
= Faulting pointer                      :	0
= Program counter                       :	0x7f9c0d83f646
= Fault PC Source                       :	UNKNOWN:0
SAFECode: Fault!
SAFECode:Violation Type 0x6 when accessing  0 at IP=0x7f9c0d83f646

=======+++++++    SAFECODE RUNTIME ALERT +++++++=======
= Error type                            :	Load/Store Error
= CWE ID                                :	120
= Faulting pointer                      :	0
= Program counter                       :	0x7f9c0d83f646
= Fault PC Source                       :	UNKNOWN:0
SAFECode: Fault!
SAFECode:Violation Type 0x6 when accessing  0 at IP=0x7f9c0d83f646

=======+++++++    SAFECODE RUNTIME ALERT +++++++=======
= Error type                            :	Load/Store Error
= CWE ID                                :	120
= Faulting pointer                      :	0
= Program counter                       :	0x7f9c0d83f646
= Fault PC Source                       :	UNKNOWN:0
SAFECode: Fault!
SAFECode:Violation Type 0x6 when accessing  0 at IP=0x7f9c0d83f646

=======+++++++    SAFECODE RUNTIME ALERT +++++++=======
= Error type                            :	Load/Store Error
= CWE ID                                :	120
= Faulting pointer                      :	0
= Program counter                       :	0x7f9c0d83f646
= Fault PC Source                       :	UNKNOWN:0
SAFECode: Fault!
SAFECode:Violation Type 0x6 when accessing  0 at IP=0x7f9c0d83f646

=======+++++++    SAFECODE RUNTIME ALERT +++++++=======
= Error type                            :	Load/Store Error
= CWE ID                                :	120
= Faulting pointer                      :	0
= Program counter                       :	0x7f9c0d83f646
= Fault PC Source                       :	UNKNOWN:0
SAFECode: Fault!
SAFECode:Violation Type 0x6 when accessing  0 at IP=0x7f9c0d83f646

=======+++++++    SAFECODE RUNTIME ALERT +++++++=======
= Error type                            :	Load/Store Error
= CWE ID                                :	120
= Faulting pointer                      :	0
= Program counter                       :	0x7f9c0d83f646
= Fault PC Source                       :	UNKNOWN:0
SAFECode: Fault!
SAFECode:Violation Type 0x6 when accessing  0 at IP=0x7f9c0d83f646

=======+++++++    SAFECODE RUNTIME ALERT +++++++=======
= Error type                            :	Load/Store Error
= CWE ID                                :	120
= Faulting pointer                      :	0
= Program counter                       :	0x7f9c0d83f646
= Fault PC Source                       :	UNKNOWN:0
SAFECode: Fault!
SAFECode:Violation Type 0x6 when accessing  0 at IP=0x7f9c0d83f646

=======+++++++    SAFECODE RUNTIME ALERT +++++++=======
= Error type                            :	Load/Store Error
= CWE ID                                :	120
= Faulting pointer                      :	0
= Program counter                       :	0x7f9c0d83f646
= Fault PC Source                       :	UNKNOWN:0
SAFECode: Fault!
SAFECode:Violation Type 0x6 when accessing  0 at IP=0x7f9c0d83f646

=======+++++++    SAFECODE RUNTIME ALERT +++++++=======
= Error type                            :	Load/Store Error
= CWE ID                                :	120
= Faulting pointer                      :	0
= Program counter                       :	0x7f9c0d83f646
= Fault PC Source                       :	UNKNOWN:0
SAFECode: Fault!
SAFECode:Violation Type 0x6 when accessing  0 at IP=0x7f9c0d83f646

=======+++++++    SAFECODE RUNTIME ALERT +++++++=======
= Error type                            :	Load/Store Error
= CWE ID                                :	120
= Faulting pointer                      :	0
= Program counter                       :	0x7f9c0d83f646
= Fault PC Source                       :	UNKNOWN:0
SAFECode: Fault!
SAFECode:Violation Type 0x6 when accessing  0 at IP=0x7f9c0d83f646

=======+++++++    SAFECODE RUNTIME ALERT +++++++=======
= Error type                            :	Load/Store Error
= CWE ID                                :	120
= Faulting pointer                      :	0
= Program counter                       :	0x7f9c0d83f646
= Fault PC Source                       :	UNKNOWN:0
SAFECode: Fault!
SAFECode:Violation Type 0x6 when accessing  0 at IP=0x7f9c0d83f646

=======+++++++    SAFECODE RUNTIME ALERT +++++++=======
= Error type                            :	Load/Store Error
= CWE ID                                :	120
= Faulting pointer                      :	0
= Program counter                       :	0x7f9c0d83f646
= Fault PC Source                       :	UNKNOWN:0
SAFECode: Fault!
SAFECode:Violation Type 0x6 when accessing  0 at IP=0x7f9c0d83f646

=======+++++++    SAFECODE RUNTIME ALERT +++++++=======
= Error type                            :	Load/Store Error
= CWE ID                                :	120
= Faulting pointer                      :	0
= Program counter                       :	0x7f9c0d83f646
= Fault PC Source                       :	UNKNOWN:0
SAFECode: Fault!
SAFECode:Violation Type 0x6 when accessing  0 at IP=0x7f9c0d83f646

=======+++++++    SAFECODE RUNTIME ALERT +++++++=======
= Error type                            :	Load/Store Error
= CWE ID                                :	120
= Faulting pointer                      :	0
= Program counter                       :	0x7f9c0d83f646
= Fault PC Source                       :	UNKNOWN:0
SAFECode: Fault!
SAFECode:Violation Type 0x6 when accessing  0 at IP=0x7f9c0d83f646

=======+++++++    SAFECODE RUNTIME ALERT +++++++=======
= Error type                            :	Load/Store Error
= CWE ID                                :	120
= Faulting pointer                      :	0
= Program counter                       :	0x7f9c0d83f646
= Fault PC Source                       :	UNKNOWN:0
SAFECode: Fault!
SAFECode:Violation Type 0x6 when accessing  0 at IP=0x7f9c0d83f646

=======+++++++    SAFECODE RUNTIME ALERT +++++++=======
= Error type                            :	Load/Store Error
= CWE ID                                :	120
= Faulting pointer                      :	0
= Program counter                       :	0x7f9c0d83f646
= Fault PC Source                       :	UNKNOWN:0
SAFECode: Fault!
SAFECode:Violation Type 0x6 when accessing  0 at IP=0x7f9c0d83f646

=======+++++++    SAFECODE RUNTIME ALERT +++++++=======
= Error type                            :	Load/Store Error
= CWE ID                                :	120
= Faulting pointer                      :	0
= Program counter                       :	0x7f9c0d83f646
= Fault PC Source                       :	UNKNOWN:0
SAFECode: Fault!
SAFECode:Violation Type 0x6 when accessing  0 at IP=0x7f9c0d83f646

=======+++++++    SAFECODE RUNTIME ALERT +++++++=======
= Error type                            :	Load/Store Error
= CWE ID                                :	120
= Faulting pointer                      :	0
= Program counter                       :	0x7f9c0d83f646
= Fault PC Source                       :	UNKNOWN:0
SAFECode: Fault!
SAFECode:Violation Type 0x6 when accessing  0 at IP=0x7f9c0d83f646

=======+++++++    SAFECODE RUNTIME ALERT +++++++=======
= Error type                            :	Load/Store Error
= CWE ID                                :	120
= Faulting pointer                      :	0
= Program counter                       :	0x7f9c0d83f646
= Fault PC Source                       :	UNKNOWN:0
SAFECode: Fault!
SAFECode:Violation Type 0x6 when accessing  0 at IP=0x7f9c0d83f646

=======+++++++    SAFECODE RUNTIME ALERT +++++++=======
= Error type                            :	Load/Store Error
= CWE ID                                :	120
= Faulting pointer                      :	0
= Program counter                       :	0x7f9c0d83f646
= Fault PC Source                       :	UNKNOWN:0
Aborted (core dumped)
