SAFECode: Fault!
SAFECode:Violation Type 0x6 when accessing  0x468038 at IP=0x4281a7

=======+++++++    SAFECODE RUNTIME ALERT +++++++=======
= Error type                            :	Load/Store Error
= CWE ID                                :	120
= Faulting pointer                      :	0x468038
= Program counter                       :	0x4281a7
= Fault PC Source                       :	UNKNOWN:0
SAFECode: Fault!
SAFECode:Violation Type 0x6 when accessing  0x468038 at IP=0x4281a7

=======+++++++    SAFECODE RUNTIME ALERT +++++++=======
= Error type                            :	Load/Store Error
= CWE ID                                :	120
= Faulting pointer                      :	0x468038
= Program counter                       :	0x4281a7
= Fault PC Source                       :	UNKNOWN:0
SAFECode: Fault!
SAFECode:Violation Type 0x6 when accessing  0x468038 at IP=0x4281a7

=======+++++++    SAFECODE RUNTIME ALERT +++++++=======
= Error type                            :	Load/Store Error
= CWE ID                                :	120
= Faulting pointer                      :	0x468038
= Program counter                       :	0x4281a7
= Fault PC Source                       :	UNKNOWN:0
SAFECode: Fault!
SAFECode:Violation Type 0x6 when accessing  0x468038 at IP=0x4281a7

=======+++++++    SAFECODE RUNTIME ALERT +++++++=======
= Error type                            :	Load/Store Error
= CWE ID                                :	120
= Faulting pointer                      :	0x468038
= Program counter                       :	0x4281a7
= Fault PC Source                       :	UNKNOWN:0
SAFECode: Fault!
SAFECode:Violation Type 0x6 when accessing  0x468038 at IP=0x4281a7

=======+++++++    SAFECODE RUNTIME ALERT +++++++=======
= Error type                            :	Load/Store Error
= CWE ID                                :	120
= Faulting pointer                      :	0x468038
= Program counter                       :	0x4281a7
= Fault PC Source                       :	UNKNOWN:0
SAFECode: Fault!
SAFECode:Violation Type 0x6 when accessing  0x468038 at IP=0x4281a7

=======+++++++    SAFECODE RUNTIME ALERT +++++++=======
= Error type                            :	Load/Store Error
= CWE ID                                :	120
= Faulting pointer                      :	0x468038
= Program counter                       :	0x4281a7
= Fault PC Source                       :	UNKNOWN:0
SAFECode: Fault!
SAFECode:Violation Type 0x6 when accessing  0x468038 at IP=0x4281a7

=======+++++++    SAFECODE RUNTIME ALERT +++++++=======
= Error type                            :	Load/Store Error
= CWE ID                                :	120
= Faulting pointer                      :	0x468038
= Program counter                       :	0x4281a7
= Fault PC Source                       :	UNKNOWN:0
SAFECode: Fault!
SAFECode:Violation Type 0x6 when accessing  0x468038 at IP=0x4281a7

=======+++++++    SAFECODE RUNTIME ALERT +++++++=======
= Error type                            :	Load/Store Error
= CWE ID                                :	120
= Faulting pointer                      :	0x468038
= Program counter                       :	0x4281a7
= Fault PC Source                       :	UNKNOWN:0
SAFECode: Fault!
SAFECode:Violation Type 0x6 when accessing  0x468038 at IP=0x4281a7

=======+++++++    SAFECODE RUNTIME ALERT +++++++=======
= Error type                            :	Load/Store Error
= CWE ID                                :	120
= Faulting pointer                      :	0x468038
= Program counter                       :	0x4281a7
= Fault PC Source                       :	UNKNOWN:0
SAFECode: Fault!
SAFECode:Violation Type 0x6 when accessing  0x468038 at IP=0x4281a7

=======+++++++    SAFECODE RUNTIME ALERT +++++++=======
= Error type                            :	Load/Store Error
= CWE ID                                :	120
= Faulting pointer                      :	0x468038
= Program counter                       :	0x4281a7
= Fault PC Source                       :	UNKNOWN:0
SAFECode: Fault!
SAFECode:Violation Type 0x6 when accessing  0x468038 at IP=0x4281a7

=======+++++++    SAFECODE RUNTIME ALERT +++++++=======
= Error type                            :	Load/Store Error
= CWE ID                                :	120
= Faulting pointer                      :	0x468038
= Program counter                       :	0x4281a7
= Fault PC Source                       :	UNKNOWN:0
SAFECode: Fault!
SAFECode:Violation Type 0x6 when accessing  0x468038 at IP=0x4281a7

=======+++++++    SAFECODE RUNTIME ALERT +++++++=======
= Error type                            :	Load/Store Error
= CWE ID                                :	120
= Faulting pointer                      :	0x468038
= Program counter                       :	0x4281a7
= Fault PC Source                       :	UNKNOWN:0
SAFECode: Fault!
SAFECode:Violation Type 0x6 when accessing  0x468038 at IP=0x4281a7

=======+++++++    SAFECODE RUNTIME ALERT +++++++=======
= Error type                            :	Load/Store Error
= CWE ID                                :	120
= Faulting pointer                      :	0x468038
= Program counter                       :	0x4281a7
= Fault PC Source                       :	UNKNOWN:0
SAFECode: Fault!
SAFECode:Violation Type 0x6 when accessing  0x468038 at IP=0x4281a7

=======+++++++    SAFECODE RUNTIME ALERT +++++++=======
= Error type                            :	Load/Store Error
= CWE ID                                :	120
= Faulting pointer                      :	0x468038
= Program counter                       :	0x4281a7
= Fault PC Source                       :	UNKNOWN:0
SAFECode: Fault!
SAFECode:Violation Type 0x6 when accessing  0x468038 at IP=0x4281a7

=======+++++++    SAFECODE RUNTIME ALERT +++++++=======
= Error type                            :	Load/Store Error
= CWE ID                                :	120
= Faulting pointer                      :	0x468038
= Program counter                       :	0x4281a7
= Fault PC Source                       :	UNKNOWN:0
SAFECode: Fault!
SAFECode:Violation Type 0x6 when accessing  0x468038 at IP=0x4281a7

=======+++++++    SAFECODE RUNTIME ALERT +++++++=======
= Error type                            :	Load/Store Error
= CWE ID                                :	120
= Faulting pointer                      :	0x468038
= Program counter                       :	0x4281a7
= Fault PC Source                       :	UNKNOWN:0
SAFECode: Fault!
SAFECode:Violation Type 0x6 when accessing  0x468038 at IP=0x4281a7

=======+++++++    SAFECODE RUNTIME ALERT +++++++=======
= Error type                            :	Load/Store Error
= CWE ID                                :	120
= Faulting pointer                      :	0x468038
= Program counter                       :	0x4281a7
= Fault PC Source                       :	UNKNOWN:0
SAFECode: Fault!
SAFECode:Violation Type 0x6 when accessing  0x468038 at IP=0x4281a7

=======+++++++    SAFECODE RUNTIME ALERT +++++++=======
= Error type                            :	Load/Store Error
= CWE ID                                :	120
= Faulting pointer                      :	0x468038
= Program counter                       :	0x4281a7
= Fault PC Source                       :	UNKNOWN:0
SAFECode: Fault!
SAFECode:Violation Type 0x6 when accessing  0x468038 at IP=0x4281a7

=======+++++++    SAFECODE RUNTIME ALERT +++++++=======
= Error type                            :	Load/Store Error
= CWE ID                                :	120
= Faulting pointer                      :	0x468038
= Program counter                       :	0x4281a7
= Fault PC Source                       :	UNKNOWN:0
SAFECode: Fault!
SAFECode:Violation Type 0x6 when accessing  0x468038 at IP=0x4281a7

=======+++++++    SAFECODE RUNTIME ALERT +++++++=======
= Error type                            :	Load/Store Error
= CWE ID                                :	120
= Faulting pointer                      :	0x468038
= Program counter                       :	0x4281a7
= Fault PC Source                       :	UNKNOWN:0
Aborted (core dumped)
